Division,WeightClassKg,Place,Name,Team,BodyweightKg,Best3SquatKg,Best3BenchKg,Best3DeadliftKg,TotalKg,Equipment,Event,Sex,BirthDate
Girls,44.23,1,Sophia Padilla,Natalia,43.59,92.99,49.9,108.86,251.74,Single-ply,SBD,F,
Girls,44.23,2,Sol Selvera,Pearsall,42.18,65.77,36.29,77.11,179.17,Single-ply,SBD,F,
Girls,44.23,3,Daniela Padilla,Natalia,42.68,72.57,34.02,72.57,179.17,Single-ply,SBD,F,
Girls,44.23,4,Gabriella Velasquez,Poteet,34.97,43.09,24.95,70.31,138.35,Single-ply,SBD,F,
Girls,44.23,5,Mercedes Reyes,Del Valle,41.32,49.9,22.68,61.23,133.81,Single-ply,SBD,F,
Girls,47.85,1,Destiny Vanausdall,San Antonio Southside,45.13,117.93,43.09,122.47,283.5,Single-ply,SBD,F,
Girls,47.85,2,Jada Lopez,Del Valle,47.67,70.31,45.36,83.91,199.58,Single-ply,SBD,F,
Girls,51.94,1,Annica Gonzales,Beeville Jones,50.85,127.01,58.97,138.35,324.32,Single-ply,SBD,F,
Girls,51.94,2,Meg Martinez,Natalia,49.67,111.13,70.31,113.4,294.84,Single-ply,SBD,F,
Girls,51.94,3,Alyssa Cortez,San Antonio Southside,48.31,113.4,49.9,115.67,278.96,Single-ply,SBD,F,
Girls,51.94,4,Dominique Banda,Natalia,51.53,108.86,63.5,102.06,274.42,Single-ply,SBD,F,
Girls,51.94,5,Ava Sanchez,Natalia,51.62,88.45,45.36,92.99,226.8,Single-ply,SBD,F,
Girls,56.02,1,Jalesca Schorsch,Natalia,53.12,117.93,72.57,124.74,315.25,Single-ply,SBD,F,
Girls,56.02,2,Angelica Padilla,Natalia,55.38,124.74,63.5,124.74,312.98,Single-ply,SBD,F,
Girls,56.02,3,Kayla Martinez,San Antonio Southside,54.16,127.01,61.23,113.4,301.64,Single-ply,SBD,F,
Girls,56.02,4,Alizen Moreno,Beeville Jones,55.7,115.67,58.97,122.47,297.1,Single-ply,SBD,F,
Girls,56.02,5,Isabella Martinez,Natalia,54.93,113.4,61.23,108.86,283.5,Single-ply,SBD,F,
Girls,56.02,6,KayLynn Vela,San Antonio Southside,55.38,120.2,56.7,99.79,276.69,Single-ply,SBD,F,
Girls,56.02,7,Ashley Carrizales,Del Valle,55.38,65.77,24.95,77.11,167.83,Single-ply,SBD,F,
Girls,56.02,8,Aliyah Pina,Hondo,55.84,52.16,43.09,70.31,165.56,Single-ply,SBD,F,
Girls,56.02,DQ,Daisha Wright,Del Valle,55.79,,,,,Single-ply,SBD,F,
Girls,60.1,1,Asia Ramos,Poteet,58.56,120.2,61.23,111.13,292.57,Single-ply,SBD,F,
Girls,60.1,2,Kaelyn Lara,Natalia,59.47,104.33,63.5,120.2,288.03,Single-ply,SBD,F,
Girls,60.1,3,Rosita Driscoll,Del Valle,56.38,97.52,63.5,106.59,267.62,Single-ply,SBD,F,
Girls,60.1,4,Emily Valle,Pearsall,58.56,90.72,49.9,117.93,258.55,Single-ply,SBD,F,
Girls,60.1,5,Jackie Rios,Hondo,59.6,97.52,45.36,97.52,240.4,Single-ply,SBD,F,
Girls,60.1,6,Ariana Quintero,Beeville Jones,57.52,106.59,47.63,70.31,224.53,Single-ply,SBD,F,
Girls,60.1,7,Araceli Bocanegra,Pearsall,58.51,65.77,47.63,108.86,222.26,Single-ply,SBD,F,
Girls,60.1,DQ,Lorisa Gonzales,Beeville Jones,59.92,117.93,63.5,,,Single-ply,SBD,F,
Girls,67.36,1,Angelica Beltran,Beeville Jones,66.72,163.29,81.65,172.37,417.3,Single-ply,SBD,F,
Girls,67.36,2,Alexis Torres #2,Del Valle,66.27,117.93,63.5,129.27,310.71,Single-ply,SBD,F,
Girls,67.36,3,Evangalina Rodriguez,Poteet,64.46,90.72,45.36,108.86,244.94,Single-ply,SBD,F,
Girls,67.36,4,Raegyn Villa,Hondo,66,90.72,40.82,88.45,219.99,Single-ply,SBD,F,
Girls,67.36,5,Jenny Medal,Del Valle,66.72,81.65,43.09,92.99,217.72,Single-ply,SBD,F,
Girls,75.07,1,Ariana Hernández,San Antonio Southwest,70.99,136.08,74.84,145.15,356.07,Single-ply,SBD,F,
Girls,75.07,2,Maricela Cardenas,San Antonio Southwest,69.72,106.59,68.04,115.67,290.3,Single-ply,SBD,F,
Girls,75.07,3,Piper Sigman,Hondo,69.44,115.67,52.16,104.33,272.16,Single-ply,SBD,F,
Girls,75.07,4,Jacqulyn Lopez,Del Valle,68.54,90.72,52.16,108.86,251.74,Single-ply,SBD,F,
Girls,75.07,5,Victoria Villa,Hondo,73.57,97.52,45.36,86.18,229.06,Single-ply,SBD,F,
Girls,75.07,DQ,Alexia Segura,Del Valle,74.84,,,,,Single-ply,SBD,F,
Girls,75.07,DQ,Deandra Talamantes,Pearsall,74.84,,,,,Single-ply,SBD,F,
Girls,82.33,1,Amidy Moreno,Beeville Jones,81.1,204.12,124.74,179.17,508.02,Single-ply,SBD,F,
Girls,82.33,2,Gabriela Munoz,Natalia,77.29,165.56,83.91,147.42,396.89,Single-ply,SBD,F,
Girls,82.33,3,Mikayla Newson,Beeville Jones,79.88,156.49,83.91,136.08,376.48,Single-ply,SBD,F,
Girls,82.33,4,Llubia Rodriguez,Pearsall,77.7,117.93,56.7,113.4,288.03,Single-ply,SBD,F,
Girls,82.33,5,Ashlyn Evans,Hondo,78.52,97.52,52.16,90.72,240.4,Single-ply,SBD,F,
Girls,90.04,1,Jasmine Ramon,Natalia,88.5,158.76,95.25,138.35,392.36,Single-ply,SBD,F,
Girls,90.04,2,Angelina Alvizo,Hondo,83.64,138.35,70.31,124.74,333.39,Single-ply,SBD,F,
Girls,90.04,3,Aeris Ramirez,Poteet,87.14,102.06,54.43,104.33,260.82,Single-ply,SBD,F,
Girls,100.02,1,Mikayla Gonzales,Natalia,95.93,176.9,90.72,158.76,426.38,Single-ply,SBD,F,
Girls,100.02,2,Mikaitlyn Anderson,Beeville Jones,97.11,165.56,108.86,145.15,419.57,Single-ply,SBD,F,
Girls,100.02,3,Brittney Briseno,Pearsall,96.52,163.29,68.04,158.76,390.09,Single-ply,SBD,F,
Girls,100.02,4,Brittany Auzston,Beeville Jones,97.52,138.35,92.99,142.88,374.21,Single-ply,SBD,F,
Girls,100.02,5,Kate Robinson,Natalia,98.02,161.03,77.11,136.08,374.21,Single-ply,SBD,F,
Girls,100.02,6,Paola Losoya,Del Valle,96.66,108.86,58.97,122.47,290.3,Single-ply,SBD,F,
Girls,100.02,7,Briana Garcia,Poteet,96.66,106.59,56.7,122.47,285.76,Single-ply,SBD,F,
Girls,100.02,8,Emberlynn Burnett,San Antonio Southwest,98.79,117.93,58.97,104.33,281.23,Single-ply,SBD,F,
Girls,100.02,9,Alani Gonzalez,Hondo,96.07,90.72,43.09,77.11,210.92,Single-ply,SBD,F,
Girls,100.02,10,Rayna Briones,Poteet,98.93,56.7,49.9,90.72,197.31,Single-ply,SBD,F,
Girls,117.71,1,Liliana Flores,Beeville Jones,104.83,131.54,79.38,115.67,326.59,Single-ply,SBD,F,
Girls,117.71,2,Isabel Laque,Natalia,104.83,108.86,74.84,108.86,292.57,Single-ply,SBD,F,
Girls,117.71,3,Arriana Romero,Natalia,100.52,86.18,54.43,79.38,219.99,Single-ply,SBD,F,
Girls,117.71,DQ,Jalyssa Garcia,Poteet,117.48,,,,,Single-ply,SBD,F,
Girls,117.71+,1,Kayla Susate,Del Valle,130.73,149.69,92.99,142.88,385.55,Single-ply,SBD,F,
