Division,WeightClassKg,Place,Name,Team,BodyweightKg,Best3SquatKg,Best3BenchKg,Best3DeadliftKg,TotalKg,Equipment,Event,Sex
Boys,51.71,1,Ezekiel Chavez,Abilene,45.81,90.72,74.84,111.13,276.69,Single-ply,SBD,M
Boys,51.71,2,Robert Hernandez,Abilene Cooper,51.26,92.99,61.23,108.86,263.08,Single-ply,SBD,M
Boys,51.71,3,Josh Hood,Water Valley,48.08,102.06,49.9,108.86,260.82,Single-ply,SBD,M
Boys,55.79,1,Josiah Galvan,Abilene,54.88,113.4,61.23,113.4,288.03,Single-ply,SBD,M
Boys,55.79,2,Wyatt Kofoed,Merkel,52.16,97.52,45.36,104.33,247.21,Single-ply,SBD,M
Boys,55.79,3,Corbin Otto,Abilene Cooper,53.07,79.38,54.43,90.72,224.53,Single-ply,SBD,M
Boys,55.79,4,Philip Richard,Anson,53.52,56.7,43.09,83.91,183.7,Single-ply,SBD,M
Boys,55.79,DQ,Nick Turner,Abilene Cooper,55.34,77.11,,,,Single-ply,SBD,M
Boys,59.87,1,Kaleb Chacon,Merkel,58.97,133.81,81.65,151.95,367.41,Single-ply,SBD,M
Boys,59.87,2,Tristen Thompson,Merkel,56.7,136.08,81.65,142.88,360.61,Single-ply,SBD,M
Boys,59.87,3,Nicholas Gonzalez,Abilene,56.25,111.13,63.5,129.27,303.91,Single-ply,SBD,M
Boys,59.87,4,Izaiah Clark,Abilene Cooper,56.7,106.59,68.04,102.06,276.69,Single-ply,SBD,M
Boys,59.87,DQ,Lleyton Frazier,Tuscola Jim Ned,56.25,131.54,,,,Single-ply,SBD,M
Boys,67.13,1,Jessus Menjivar,Abilene Cooper,61.69,172.37,95.25,185.97,453.59,Single-ply,SBD,M
Boys,67.13,2,Riley Perry,Tuscola Jim Ned,63.05,170.1,106.59,154.22,430.91,Single-ply,SBD,M
Boys,67.13,3,Damian Willborn,Ballinger,66.22,154.22,83.91,183.7,421.84,Single-ply,SBD,M
Boys,67.13,4,Clinton Timms,San Angelo Central,66.68,113.4,74.84,142.88,331.12,Single-ply,SBD,M
Boys,67.13,5,Don Bridges,Tuscola Jim Ned,63.5,115.67,65.77,131.54,312.98,Single-ply,SBD,M
Boys,67.13,6,Aiden Feeler,Merkel,65.77,108.86,61.23,111.13,281.23,Single-ply,SBD,M
Boys,67.13,DQ,Ramiro Aguilar,Hawley,65.77,106.59,,,,Single-ply,SBD,M
Boys,67.13,DQ,Colton Childress,Hawley,62.6,108.86,,,,Single-ply,SBD,M
Boys,67.13,DQ,Nick Massey,Merkel,63.5,113.4,,,,Single-ply,SBD,M
Boys,74.84,1,Jorge Hernandez,Abilene,74.39,158.76,102.06,183.7,444.52,Single-ply,SBD,M
Boys,74.84,2,Matthew Lozano,Anson,68.95,158.76,83.91,165.56,408.23,Single-ply,SBD,M
Boys,74.84,3,Gunnar McCoy,Water Valley,68.04,136.08,79.38,165.56,381.02,Single-ply,SBD,M
Boys,74.84,4,Noah Bjorlie,Abilene Cooper,69.4,145.15,79.38,142.88,367.41,Single-ply,SBD,M
Boys,74.84,5,Brady Miller,Abilene Cooper,74.39,142.88,72.57,136.08,351.53,Single-ply,SBD,M
Boys,74.84,6,Alec Gibbs,San Angelo Central,68.95,133.81,68.04,142.88,344.73,Single-ply,SBD,M
Boys,74.84,7,Mark Leyva,Merkel,70.76,113.4,68.04,149.69,331.12,Single-ply,SBD,M
Boys,74.84,8,Daniel Medina,Ballinger,72.57,124.74,74.84,127.01,326.59,Single-ply,SBD,M
Boys,74.84,9,Sam Meier,Merkel,73.94,124.74,74.84,127.01,326.59,Single-ply,SBD,M
Boys,74.84,10,Maison Dickinson,Abilene,69.4,106.59,77.11,120.2,303.91,Single-ply,SBD,M
Boys,74.84,11,Justin Turk,Abilene,71.21,115.67,61.23,120.2,297.1,Single-ply,SBD,M
Boys,74.84,DQ,Kyle Nichols,Hawley,72.57,124.74,,,,Single-ply,SBD,M
Boys,74.84,DQ,Adrian Tapia,Ballinger,72.12,115.67,,,,Single-ply,SBD,M
Boys,82.1,1,Phonzo Dotson,Abilene,78.93,183.7,92.99,174.63,451.32,Single-ply,SBD,M
Boys,82.1,2,Fabian Rubio,Ballinger,78.47,158.76,92.99,163.29,415.04,Single-ply,SBD,M
Boys,82.1,3,Luke Boggess,Ballinger,81.19,145.15,97.52,142.88,385.55,Single-ply,SBD,M
Boys,82.1,4,Esai Jaques,Abilene,82.1,136.08,92.99,154.22,383.29,Single-ply,SBD,M
Boys,82.1,5,Tristan Alejandro,Ballinger,76.66,142.88,86.18,133.81,362.87,Single-ply,SBD,M
Boys,82.1,6,Matthew Muncey,San Angelo Central,79.38,131.54,92.99,124.74,349.27,Single-ply,SBD,M
Boys,89.81,1,Emile Niyonkuru,Abilene Cooper,86.18,195.04,124.74,217.72,537.51,Single-ply,SBD,M
Boys,89.81,2,Tommy Allmand,Abilene Cooper,88.9,204.12,136.08,181.44,521.63,Single-ply,SBD,M
Boys,89.81,3,Phillip Tellez,Abilene,84.37,158.76,111.13,183.7,453.59,Single-ply,SBD,M
Boys,89.81,4,Tate Thompson,Hawley,87.09,156.49,113.4,172.37,442.25,Single-ply,SBD,M
Boys,89.81,5,D'Anthony Franklin,Abilene,85.73,167.83,97.52,174.63,439.98,Single-ply,SBD,M
Boys,89.81,6,Jacob Deax,Abilene Cooper,83.46,142.88,95.25,183.7,421.84,Single-ply,SBD,M
Boys,89.81,7,Ryan Johnson #19,Abilene,88.9,113.4,74.84,124.74,312.98,Single-ply,SBD,M
Boys,89.81,8,Tyson Moore,Abilene,84.82,108.86,65.77,124.74,299.37,Single-ply,SBD,M
Boys,89.81,DQ,Tyler Stevens #2,Tuscola Jim Ned,88.45,145.15,,,,Single-ply,SBD,M
Boys,89.81,DQ,Caleb Smith #15,Tuscola Jim Ned,83.91,149.69,,,,Single-ply,SBD,M
Boys,99.79,1,Tanner Schnoor,Hawley,96.62,272.16,142.88,254.01,669.05,Single-ply,SBD,M
Boys,99.79,2,Adolph Medina,Ballinger,97.52,204.12,131.54,217.72,553.38,Single-ply,SBD,M
Boys,99.79,3,Max Bradley,Water Valley,97.07,183.7,99.79,192.78,476.27,Single-ply,SBD,M
Boys,99.79,4,Colton Marshall,Hawley,90.26,172.37,113.4,185.97,471.74,Single-ply,SBD,M
Boys,99.79,5,Colton Strickland,Hawley,93.44,174.63,111.13,185.97,471.74,Single-ply,SBD,M
Boys,99.79,6,Cody Farley,Abilene Cooper,95.71,163.29,97.52,181.44,442.25,Single-ply,SBD,M
Boys,99.79,7,Jayden Harms,Abilene Cooper,94.35,195.04,95.25,136.08,426.38,Single-ply,SBD,M
Boys,99.79,8,Dustin Parmeter,Merkel,95.25,140.61,79.38,174.63,394.63,Single-ply,SBD,M
Boys,99.79,9,Keegan Copher,Abilene,99.34,142.88,65.77,158.76,367.41,Single-ply,SBD,M
Boys,99.79,10,Robert Garcia #2,Merkel,99.79,154.22,70.31,142.88,367.41,Single-ply,SBD,M
Boys,99.79,11,Zach Killam,Abilene,97.52,138.35,68.04,129.27,335.66,Single-ply,SBD,M
Boys,109.77,1,Ricky Soto,Hawley,108.86,206.38,142.88,206.38,555.65,Single-ply,SBD,M
Boys,109.77,2,Colton Grimes,Abilene Cooper,109.32,192.78,142.88,204.12,539.77,Single-ply,SBD,M
Boys,109.77,3,John Wheeler,Tuscola Jim Ned,102.97,204.12,142.88,174.63,521.63,Single-ply,SBD,M
Boys,109.77,4,Colby Ernst,Abilene,105.69,199.58,122.47,183.7,505.76,Single-ply,SBD,M
Boys,109.77,5,Lucio Ramirez,Abilene,105.69,208.65,111.13,183.7,503.49,Single-ply,SBD,M
Boys,109.77,6,Harley Davis #1,Water Valley,100.7,192.78,97.52,183.7,474,Single-ply,SBD,M
Boys,109.77,7,Kody Crouch,Merkel,100.24,181.44,86.18,195.04,462.66,Single-ply,SBD,M
Boys,109.77,8,Triston Patterson,Tuscola Jim Ned,108.86,170.1,111.13,176.9,458.13,Single-ply,SBD,M
Boys,109.77,9,Wyatt Southerland,Abilene,102.97,156.49,88.45,151.95,396.89,Single-ply,SBD,M
Boys,109.77,10,Keanu Graves,Abilene,106.14,147.42,74.84,158.76,381.02,Single-ply,SBD,M
Boys,109.77,11,Cody Rice,Merkel,107.05,142.88,86.18,138.35,367.41,Single-ply,SBD,M
Boys,109.77,12,Paydan Alberts,Abilene,105.69,111.13,79.38,120.2,310.71,Single-ply,SBD,M
Boys,124.74,1,Kolter Willeford,Hawley,121.56,260.82,179.17,249.48,689.46,Single-ply,SBD,M
Boys,124.74,2,David Schuman,Merkel,123.83,254.01,163.29,249.48,666.78,Single-ply,SBD,M
Boys,124.74,3,Bo Thompson,Hawley,120.2,240.4,188.24,226.8,655.44,Single-ply,SBD,M
Boys,124.74,4,Luke Williams #2,Merkel,116.12,226.8,142.88,226.8,596.47,Single-ply,SBD,M
Boys,124.74,5,Chris Loya,Abilene,115.21,204.12,113.4,183.7,501.22,Single-ply,SBD,M
Boys,124.74,6,Ryan Gofigan,Abilene Cooper,110.22,181.44,117.93,199.58,498.95,Single-ply,SBD,M
Boys,124.74,7,Donovan Brooks,Merkel,111.13,183.7,127.01,161.03,471.74,Single-ply,SBD,M
Boys,124.74,8,Jayden Hostetter,Ballinger,116.12,165.56,115.67,176.9,458.13,Single-ply,SBD,M
Boys,124.74,9,Bradley Byrne,Abilene,113.4,183.7,97.52,170.1,451.32,Single-ply,SBD,M
Boys,124.74,10,Kade Miller,Tuscola Jim Ned,110.22,167.83,97.52,172.37,437.72,Single-ply,SBD,M
Boys,124.74,11,Gatlyn Cooper,Tuscola Jim Ned,110.22,156.49,99.79,174.63,430.91,Single-ply,SBD,M
Boys,124.74,12,Levi Smith,Water Valley,115.21,151.95,88.45,158.76,399.16,Single-ply,SBD,M
Boys,124.74,DQ,Dakota Nichols,Hawley,120.66,226.8,156.49,,,Single-ply,SBD,M
Boys,124.74+,1,Devon Cosby,Abilene Cooper,131.09,208.65,142.88,226.8,578.33,Single-ply,SBD,M
Boys,124.74+,2,Thomas Squyres,Abilene Cooper,132,213.19,154.22,199.58,566.99,Single-ply,SBD,M
Boys,124.74+,3,Khalil Spivey,Abilene,138.8,233.6,108.86,206.38,548.85,Single-ply,SBD,M
Boys,124.74+,4,Gage McVey,Abilene Cooper,131.54,204.12,127.01,192.78,523.9,Single-ply,SBD,M
Boys,124.74+,5,Kobe Moore,San Angelo Central,131.09,192.78,88.45,170.1,451.32,Single-ply,SBD,M
Boys,124.74+,6,Justin Barton,San Angelo Central,136.98,183.7,99.79,156.49,439.98,Single-ply,SBD,M
Boys,124.74+,DQ,Kody Ramsey,Hawley,149.23,183.7,,,,Single-ply,SBD,M
